<svg width="487.21" height="288.21" version="1.1" viewBox="0 0 487.21 288.21" xml:space="preserve" xmlns="http://www.w3.org/2000/svg">
<rect x="189.13" y="4.9667" width="111.79" height="16.405" color="#000000" fill="#250" stop-color="#000000"/><rect x="203.9" y="24.117" width="83.199" height="32.811" color="#000000" fill="#338000" stop-color="#000000"/><path d="m290.77 52.528h86.787c36.613 0 64.88 11.746 84.014 34.911 16.774 20.307 25.64 48.984 25.64 82.93 0 32.177-12.24 61.753-34.465 83.277-23.347 22.612-55.229 34.564-92.199 34.564h-250.89c-36.614 0-64.881-11.746-84.016-34.91-16.775-20.308-25.642-48.985-25.642-82.931s8.867-62.622 25.642-82.93c19.136-23.165 47.403-34.911 84.016-34.911h89.616" fill="#500"/><path d="m247.39 280.11h116.94c9.461 0 18.561-0.882 27.223-2.563 2.8333-0.64767 5.6667-1.2953 8.5-1.943 49.362-13.026 82.441-53.147 82.441-104.84 0-32.76-9.798-108.79-100.2-109.33l-8.5-0.013h-126.4" fill="#eeb41f"/><path d="m239.83 285.42c-53.215-0.36002-131.15-1.5319-165.49-5.8321-39.419-17.666-71.607-47.181-69.618-108.81 1.0565-32.743 9.798-108.79 100.2-109.33l8.5-0.013h126.4" fill="#2c5aa0"/><path d="m109.66 288.21h250.89c36.97 0 68.852-11.952 92.199-34.564 22.225-21.524 34.465-51.1 34.465-83.277 0-33.946-8.866-62.623-25.64-82.93-19.134-23.165-47.401-34.911-84.014-34.911h-86.787v-24.656h5.102c5.681 0 10.303-4.622 10.303-10.304v-7.265c0-5.681-4.622-10.303-10.303-10.303h-101.7c-5.682 0-10.304 4.622-10.304 10.303v7.265c0 5.682 4.622 10.304 10.304 10.304h5.101v24.656h-89.616c-36.613 0-64.88 11.746-84.016 34.911-16.775 20.308-25.642 48.984-25.642 82.93s8.867 62.623 25.642 82.931c19.135 23.164 47.402 34.91 84.016 34.91zm82.711-270.64v-7.265c0-0.994 0.809-1.803 1.804-1.803h101.7c0.994 0 1.803 0.809 1.803 1.803v7.265c0 0.995-0.809 1.804-1.803 1.804h-101.7c-0.995 0-1.804-0.809-1.804-1.804zm15.404 10.304h74.5v24.656h-74.5zm-98.115 33.156h14.354v113.48c0 2.347 1.903 4.25 4.25 4.25s4.25-1.903 4.25-4.25v-113.48h205.5v113.48c0 2.347 1.902 4.25 4.25 4.25s4.25-1.903 4.25-4.25v-113.48h23.5v37.908c0 2.347 1.902 4.25 4.25 4.25s4.25-1.903 4.25-4.25v-37.895c90.405 0.535 100.2 76.568 100.2 109.33 0 51.688-33.079 91.809-82.441 104.84v-81.664c0-2.347-1.902-4.25-4.25-4.25s-4.25 1.903-4.25 4.25v83.607c-8.662 1.681-17.762 2.563-27.223 2.563h-250.89c-7.306 0-14.085-0.495-20.384-1.413v-37.861c0-2.347-1.903-4.25-4.25-4.25s-4.25 1.903-4.25 4.25v36.296c-64.582-14.383-72.274-77.346-72.274-106.36 0-32.876 9.857-109.34 101.16-109.34z"/><path d="m128.26 234.19c2.347 0 4.25-1.903 4.25-4.25v-40c0-2.347-1.903-4.25-4.25-4.25s-4.25 1.903-4.25 4.25v40c0 2.347 1.903 4.25 4.25 4.25z"/>















<path d="m243.61 56.425v228.69" fill="none" stroke="#000" stroke-width="7.5591"/><g id="color" transform="matrix(3.3361 0 0 3.3361 122.71 49.718)" fill="#fff"><line x1="16" x2="25.875" y1="35" y2="35"/><path d="m25.875 35c3.4167 0 4.75-2.9167 4.75-6.1667"/><line x1="16" x2="19.75" y1="45.5" y2="45.5"/><line x1="35.3" x2="35.3" y1="45.5" y2="39.438"/><path d="m35.3 39.438c0-2.2455 1.2003-5.25 5.0756-5.25"/><line x1="58.458" x2="49.875" y1="34.542" y2="34.542"/><path d="m40.375 45.5s0.1642 10.5-7.9583 10.5h-16.417c-7.2083 0-7.6667-10.5 0-10.5-7.2083 0-7.6667-10.5 0-10.5-8.1667-7.25 1.875-13.562 6.5-8.6875-4.799-6.625 5.375-10.312 8.875-5-0.4123-5.3125 4.8472-6.2708 9.7253-2.2885l-0.4336 0.351c2.375-2.375 10.178-1.0833 10.178 5.3141l-2.2192 1.6234c6.8646-6.8646 14.208 4.1875 8.5 8.2292h1.3333c4.75 0 5.2917 10.958-1.3333 10.958h-27.833"/><path d="m40.667 19.375c-2.4167 2.4167-0.2822 3.1782-4.2707 7.1667"/></g><g id="line" transform="matrix(3.3361 0 0 3.3361 122.71 49.718)" fill="none" stroke="#000" stroke-linecap="round" stroke-linejoin="round" stroke-miterlimit="10" stroke-width="2"><line x1="16" x2="25.875" y1="35" y2="35"/><path d="m25.875 35c3.4167 0 4.75-2.9167 4.75-6.1667"/><line x1="16" x2="19.75" y1="45.5" y2="45.5"/><line x1="35.3" x2="35.3" y1="45.5" y2="39.438"/><path d="m35.3 39.438c0-2.2455 1.2003-5.25 5.0756-5.25"/><line x1="58.458" x2="49.875" y1="34.542" y2="34.542"/><path d="m40.375 45.5s0.1642 10.5-7.9583 10.5h-16.417c-7.2083 0-7.6667-10.5 0-10.5-7.2083 0-7.6667-10.5 0-10.5-8.1667-7.25 1.875-13.562 6.5-8.6875-4.799-6.625 5.375-10.312 8.875-5-0.4123-5.3125 4.8472-6.2708 9.7253-2.2885l-0.4336 0.351c2.375-2.375 10.178-1.0833 10.178 5.3141l-2.2192 1.6234c6.8646-6.8646 14.208 4.1875 8.5 8.2292h1.3333c4.75 0 5.2917 10.958-1.3333 10.958h-27.833"/><path d="m40.667 19.375c-2.4167 2.4167-0.2822 3.1782-4.2707 7.1667"/></g></svg>
