<?xml version="1.0" encoding="UTF-8" standalone="no"?>
<svg
   xmlns:dc="http://purl.org/dc/elements/1.1/"
   xmlns:cc="http://creativecommons.org/ns#"
   xmlns:rdf="http://www.w3.org/1999/02/22-rdf-syntax-ns#"
   xmlns:svg="http://www.w3.org/2000/svg"
   xmlns="http://www.w3.org/2000/svg"
   xmlns:sodipodi="http://sodipodi.sourceforge.net/DTD/sodipodi-0.dtd"
   xmlns:inkscape="http://www.inkscape.org/namespaces/inkscape"
   version="1.1"
   id="Capa_1"
   x="0px"
   y="0px"
   viewBox="0 0 497.21405 298.21"
   xml:space="preserve"
   sodipodi:docname="mdmabeleid-logo-dark-bg.svg"
   inkscape:version="1.0.1 (3bc2e813f5, 2020-09-07)"
   width="497.21402"
   height="298.20999"
   inkscape:export-filename="B:\Data\websites\mdma-policy-mdmcda-website\static\images\mdmabeleid-logo-darg-bg.png"
   inkscape:export-xdpi="36.05513"
   inkscape:export-ydpi="36.05513"><metadata
   id="metadata1033"><rdf:RDF><cc:Work
       rdf:about=""><dc:format>image/svg+xml</dc:format><dc:type
         rdf:resource="http://purl.org/dc/dcmitype/StillImage" /><dc:title></dc:title></cc:Work></rdf:RDF></metadata><defs
   id="defs1031"><inkscape:path-effect
   effect="fill_between_many"
   id="path-effect1743"
   is_visible="true"
   lpeversion="1"
   linkedpaths=""
   method="bsplinespiro"
   join="true"
   close="true"
   autoreverse="true"
   applied="false" />
	
	
	
	
	
	
	
</defs><sodipodi:namedview
   pagecolor="#ffffff"
   bordercolor="#666666"
   borderopacity="1"
   objecttolerance="10"
   gridtolerance="10"
   guidetolerance="10"
   inkscape:pageopacity="0"
   inkscape:pageshadow="2"
   inkscape:window-width="1920"
   inkscape:window-height="975"
   id="namedview1029"
   showgrid="false"
   inkscape:snap-bbox="true"
   inkscape:bbox-paths="true"
   inkscape:bbox-nodes="true"
   inkscape:zoom="2.5779814"
   inkscape:cx="248.60701"
   inkscape:cy="149.105"
   inkscape:window-x="-8"
   inkscape:window-y="-8"
   inkscape:window-maximized="1"
   inkscape:current-layer="Capa_1"
   fit-margin-top="5"
   fit-margin-left="5"
   fit-margin-right="5"
   fit-margin-bottom="5"
   inkscape:document-rotation="0"
   inkscape:snap-bbox-edge-midpoints="true"
   inkscape:snap-bbox-midpoints="true"
   inkscape:object-paths="true"
   inkscape:snap-intersection-paths="true"
   inkscape:snap-smooth-nodes="true"
   inkscape:snap-midpoints="true"
   inkscape:snap-global="false" />
<rect
   style="color:#000000;overflow:visible;opacity:1;fill:#225500;stroke:none;stroke-width:0.00081964;stroke-miterlimit:4;stroke-dasharray:none;stop-color:#000000"
   id="rect1594"
   width="111.78753"
   height="16.40534"
   x="194.1302"
   y="9.966671" /><rect
   style="color:#000000;overflow:visible;opacity:1;fill:#338000;stroke:none;stroke-width:0.001;stroke-miterlimit:4;stroke-dasharray:none;stop-color:#000000"
   id="rect1592"
   width="83.198555"
   height="32.810696"
   x="208.89503"
   y="29.117085" /><path
   style="fill:#550000;stroke-width:0.979904"
   d="m 294.60733,60.179505 h 85.25199 c 35.96543,0 63.73249,11.481706 82.52807,34.125478 16.47731,19.850077 25.1865,47.881827 25.1865,81.064017 0,31.453 -12.02351,60.36351 -33.85542,81.40321 -22.93406,22.10321 -54.25217,33.78629 -90.56829,33.78629 H 116.69573 c -35.966408,0 -63.733448,-11.48171 -82.530005,-34.1245 C 17.687426,236.58294 8.977257,208.55119 8.977257,175.369 c 0,-33.18219 8.710169,-61.21296 25.188468,-81.064017 18.79754,-22.643772 46.564579,-34.125478 82.530005,-34.125478 h 88.03095"
   id="path1763" /><path
   id="path1581"
   style="fill:#eeb41f;fill-opacity:1;stroke:none;stroke-width:1.02785"
   d="m 249.07215,288.42664 h 119.91101 c 9.70107,0 19.03199,-0.90874 27.91379,-2.64069 2.90522,-0.6673 5.81045,-1.3346 8.71568,-2.00189 50.61462,-13.42086 84.53299,-54.75802 84.53299,-108.0128 0,-33.75304 -10.04663,-112.090769 -102.7457,-112.641987 l -8.71569,-0.0134 h -24.09632 -8.71568 -96.79983" /><path
   id="path1584"
   style="fill:#2c5aa0;fill-opacity:1;stroke:none;stroke-width:1.01887"
   d="M 248.14185,290.41527 C 194.17681,290.04673 115.14856,288.8471 80.320365,284.44507 40.346005,266.36068 7.7044906,236.14728 9.7211425,173.05698 10.792536,139.53881 19.657216,61.688225 111.33622,61.140558 l 8.61978,-0.01331 h 23.83116 8.61979 95.73465"
   sodipodi:nodetypes="ccsccccc" /><path
   d="M 114.658,293.21 H 365.55 c 36.97,0 68.85202,-11.952 92.19902,-34.564 22.225,-21.524 34.465,-51.1 34.465,-83.277 0,-33.946 -8.866,-62.623 -25.64,-82.93 C 447.44002,69.274 419.173,57.528 382.56,57.528 H 295.773 V 32.872 h 5.102 c 5.681,0 10.303,-4.622 10.303,-10.304 V 15.303 C 311.178,9.622 306.556,5 300.875,5 H 199.173 c -5.682,0 -10.304,4.622 -10.304,10.303 v 7.265 c 0,5.682 4.622,10.304 10.304,10.304 h 5.101 v 24.656 h -89.616 c -36.613,0 -64.88,11.746 -84.016,34.911 C 13.867,112.747 5,141.423 5,175.369 c 0,33.946 8.867,62.623 25.642,82.931 19.135,23.164 47.402,34.91 84.016,34.91 z M 197.369,22.568 v -7.265 c 0,-0.994 0.809,-1.803 1.804,-1.803 h 101.702 c 0.994,0 1.803,0.809 1.803,1.803 v 7.265 c 0,0.995 -0.809,1.804 -1.803,1.804 H 199.173 c -0.995,0 -1.804,-0.809 -1.804,-1.804 z m 15.404,10.304 h 74.5 v 24.656 h -74.5 z m -98.115,33.156 h 14.354 v 113.476 c 0,2.347 1.903,4.25 4.25,4.25 2.347,0 4.25,-1.903 4.25,-4.25 V 66.028 h 205.5 v 113.476 c 0,2.347 1.902,4.25 4.25,4.25 2.348,0 4.25,-1.903 4.25,-4.25 V 66.028 h 23.5 v 37.908 c 0,2.347 1.902,4.25 4.25,4.25 2.348,0 4.25,-1.903 4.25,-4.25 V 66.041 c 90.40502,0.535 100.20302,76.568 100.20302,109.328 0,51.688 -33.079,91.809 -82.44102,104.835 V 198.54 c 0,-2.347 -1.902,-4.25 -4.25,-4.25 -2.348,0 -4.25,1.903 -4.25,4.25 v 83.607 c -8.662,1.681 -17.762,2.563 -27.223,2.563 H 114.658 c -7.306,0 -14.085,-0.495 -20.384002,-1.413 v -37.861 c 0,-2.347 -1.903,-4.25 -4.25,-4.25 -2.347,0 -4.25,1.903 -4.25,4.25 v 36.296 C 21.192,267.349 13.5,204.386 13.5,175.369 13.5,142.493 23.357,66.028 114.658,66.028 Z"
   id="path990"
   style="fill:#ffffff" /><path
   d="m 133.261,239.186 c 2.347,0 4.25,-1.903 4.25,-4.25 v -40 c 0,-2.347 -1.903,-4.25 -4.25,-4.25 -2.347,0 -4.25,1.903 -4.25,4.25 v 40 c 0,2.347 1.903,4.25 4.25,4.25 z"
   id="path992"
   style="fill:#ffffff" />
<g
   id="g998"
   transform="translate(3.67425,-187.23202)">
</g>
<g
   id="g1000"
   transform="translate(3.67425,-187.23202)">
</g>
<g
   id="g1002"
   transform="translate(3.67425,-187.23202)">
</g>
<g
   id="g1004"
   transform="translate(3.67425,-187.23202)">
</g>
<g
   id="g1006"
   transform="translate(3.67425,-187.23202)">
</g>
<g
   id="g1008"
   transform="translate(3.67425,-187.23202)">
</g>
<g
   id="g1010"
   transform="translate(3.67425,-187.23202)">
</g>
<g
   id="g1012"
   transform="translate(3.67425,-187.23202)">
</g>
<g
   id="g1014"
   transform="translate(3.67425,-187.23202)">
</g>
<g
   id="g1016"
   transform="translate(3.67425,-187.23202)">
</g>
<g
   id="g1018"
   transform="translate(3.67425,-187.23202)">
</g>
<g
   id="g1020"
   transform="translate(3.67425,-187.23202)">
</g>
<g
   id="g1022"
   transform="translate(3.67425,-187.23202)">
</g>
<g
   id="g1024"
   transform="translate(3.67425,-187.23202)">
</g>
<g
   id="g1026"
   transform="translate(3.67425,-187.23202)">
</g>
<path
   style="fill:none;fill-rule:evenodd;stroke:#ffffff;stroke-width:7.55906;stroke-linecap:butt;stroke-linejoin:miter;stroke-miterlimit:4;stroke-dasharray:none;stroke-opacity:1"
   d="M 248.607,61.42512 V 290.1174"
   id="path1560" /><g
   id="color"
   transform="matrix(3.3360958,0,0,3.3360958,127.70975,54.71779)"
   style="fill:#33333f;fill-opacity:1"><line
     x1="16"
     x2="25.875"
     y1="35"
     y2="35"
     fill="#ea5a47"
     stroke="none"
     id="line869"
     style="fill:#33333f;fill-opacity:1" /><path
     fill="#ea5a47"
     stroke="none"
     d="m 25.875,35 c 3.4167,0 4.75,-2.9167 4.75,-6.1667"
     id="path871"
     style="fill:#33333f;fill-opacity:1" /><line
     x1="16"
     x2="19.75"
     y1="45.5"
     y2="45.5"
     fill="#ea5a47"
     stroke="none"
     id="line873"
     style="fill:#33333f;fill-opacity:1" /><line
     x1="35.299702"
     x2="35.299702"
     y1="45.5"
     y2="39.4375"
     fill="#ea5a47"
     stroke="none"
     id="line875"
     style="fill:#33333f;fill-opacity:1" /><path
     fill="#ea5a47"
     stroke="none"
     d="m 35.2997,39.4375 c 0,-2.2455 1.2003,-5.25 5.0756,-5.25"
     id="path877"
     style="fill:#33333f;fill-opacity:1" /><line
     x1="58.458302"
     x2="49.875"
     y1="34.541698"
     y2="34.541698"
     fill="#ea5a47"
     stroke="none"
     id="line879"
     style="fill:#33333f;fill-opacity:1" /><path
     fill="#ffa7c0"
     stroke="none"
     d="m 40.375,45.5 c 0,0 0.1642,10.5 -7.9583,10.5 H 16 C 8.7917,56 8.3333,45.5 16,45.5 8.7917,45.5 8.3333,35 16,35 7.8333,27.75 17.875,21.4375 22.5,26.3125 17.701,19.6875 27.875,16 31.375,21.3125 30.9627,16 36.2222,15.0417 41.1003,19.024 l -0.4336,0.351 C 43.0417,17 50.8443,18.2917 50.8443,24.6891 l -2.2192,1.6234 c 6.8646,-6.8646 14.2083,4.1875 8.5,8.2292 h 1.3333 c 4.75,0 5.2917,10.9583 -1.3333,10.9583 H 29.2917"
     id="path881"
     style="fill:#33333f;fill-opacity:1" /><path
     fill="#ea5a47"
     stroke="none"
     d="M 40.6667,19.375 C 38.25,21.7917 40.3845,22.5532 36.396,26.5417"
     id="path883"
     style="fill:#33333f;fill-opacity:1" /></g><g
   id="line"
   transform="matrix(3.3360958,0,0,3.3360958,127.70975,54.71779)"
   style="stroke:#ffffff"><line
     x1="16"
     x2="25.875"
     y1="35"
     y2="35"
     fill="none"
     stroke="#000000"
     stroke-linecap="round"
     stroke-linejoin="round"
     stroke-miterlimit="10"
     stroke-width="2"
     id="line889"
     style="stroke:#ffffff" /><path
     fill="none"
     stroke="#000000"
     stroke-linecap="round"
     stroke-linejoin="round"
     stroke-miterlimit="10"
     stroke-width="2"
     d="m 25.875,35 c 3.4167,0 4.75,-2.9167 4.75,-6.1667"
     id="path891"
     style="stroke:#ffffff" /><line
     x1="16"
     x2="19.75"
     y1="45.5"
     y2="45.5"
     fill="none"
     stroke="#000000"
     stroke-linecap="round"
     stroke-linejoin="round"
     stroke-miterlimit="10"
     stroke-width="2"
     id="line893"
     style="stroke:#ffffff" /><line
     x1="35.299702"
     x2="35.299702"
     y1="45.5"
     y2="39.4375"
     fill="none"
     stroke="#000000"
     stroke-linecap="round"
     stroke-linejoin="round"
     stroke-miterlimit="10"
     stroke-width="2"
     id="line895"
     style="stroke:#ffffff" /><path
     fill="none"
     stroke="#000000"
     stroke-linecap="round"
     stroke-linejoin="round"
     stroke-miterlimit="10"
     stroke-width="2"
     d="m 35.2997,39.4375 c 0,-2.2455 1.2003,-5.25 5.0756,-5.25"
     id="path897"
     style="stroke:#ffffff" /><line
     x1="58.458302"
     x2="49.875"
     y1="34.541698"
     y2="34.541698"
     fill="none"
     stroke="#000000"
     stroke-linecap="round"
     stroke-linejoin="round"
     stroke-miterlimit="10"
     stroke-width="2"
     id="line899"
     style="stroke:#ffffff" /><path
     fill="none"
     stroke="#000000"
     stroke-linecap="round"
     stroke-linejoin="round"
     stroke-miterlimit="10"
     stroke-width="2"
     d="m 40.375,45.5 c 0,0 0.1642,10.5 -7.9583,10.5 H 16 C 8.7917,56 8.3333,45.5 16,45.5 8.7917,45.5 8.3333,35 16,35 7.8333,27.75 17.875,21.4375 22.5,26.3125 17.701,19.6875 27.875,16 31.375,21.3125 30.9627,16 36.2222,15.0417 41.1003,19.024 l -0.4336,0.351 C 43.0417,17 50.8443,18.2917 50.8443,24.6891 l -2.2192,1.6234 c 6.8646,-6.8646 14.2083,4.1875 8.5,8.2292 h 1.3333 c 4.75,0 5.2917,10.9583 -1.3333,10.9583 H 29.2917"
     id="path901"
     style="stroke:#ffffff" /><path
     fill="none"
     stroke="#000000"
     stroke-linecap="round"
     stroke-linejoin="round"
     stroke-miterlimit="10"
     stroke-width="2"
     d="M 40.6667,19.375 C 38.25,21.7917 40.3845,22.5532 36.396,26.5417"
     id="path903"
     style="stroke:#ffffff" /></g></svg>
